Made by Irrealitas
https://irl.st
 _____                           _  _  _
|_   _|                         | |(_)| |
  | |   _ __  _ __   ___   __ _ | | _ | |_   __ _  ___
  | |  | '__|| '__| / _ \ / _` || || || __| / _` |/ __|
 _| |_ | |   | |   |  __/| (_| || || || |_ | (_| |\__ \
 \___/ |_|   |_|    \___| \__,_||_||_| \__| \__,_||___/

